…
There are 7 variables
(license\_issue\_date-license\_number-animal\_name-species-primary\_breed-secondary\_breed-zip\_code)

\`3. Copy the code provided in the homework documentation and paste it
here.

(4 points)

``` r
seattlepets %>%
count(animal_name, sort = TRUE)
```

    ## # A tibble: 13,930 x 2
    ##    animal_name     n
    ##    <chr>       <int>
    ##  1 <NA>          483
    ##  2 Lucy          439
    ##  3 Charlie       387
    ##  4 Luna          355
    ##  5 Bella         331
    ##  6 Max           270
    ##  7 Daisy         261
    ##  8 Molly         240
    ##  9 Jack          232
    ## 10 Lily          232
    ## # … with 13,920 more rows
…
